30000000 50
10 1000000
10 1000000
10 1000000
10 1000000
10 1000000
9 900000
9 900000
9 900000
9 900000
9 900000
8 800000
8 800000
8 800000
8 800000
8 800000
7 700000
7 700000
7 700000
7 700000
7 700000
6 600000
6 600000
6 600000
6 600000
6 600000
5 500000
5 500000
5 500000
5 500000
5 500000
4 400000
4 400000
4 400000
4 400000
4 400000
3 300000
3 300000
3 300000
3 300000
3 300000
2 200000
2 200000
2 200000
2 200000
2 200000
1 100000
1 100000
1 100000
1 100000
1 100000
